%YAML 1.1
%TAG !u! tag:unity3d.com,2011:
--- !u!114 &11400000
MonoBehaviour:
  m_ObjectHideFlags: 0
  m_PrefabParentObject: {fileID: 0}
  m_PrefabInternal: {fileID: 0}
  m_GameObject: {fileID: 0}
  m_Enabled: 1
  m_EditorHideFlags: 0
  m_Script: {fileID: 11500000, guid: 743737da729d1408d9fe2900ffb58ae9, type: 3}
  m_Name: XcodeProjectSetting
  m_EditorClassIdentifier: 
  CopyDirectoryPath: CopyToXcode
  URLIdentifier: jp.oliviaashley.${PRODUCT_NAME}
  URLSchemeList:
  - ${PRODUCT_NAME}
  - jp.oliviaashley.${PRODUCT_NAME}
  - jp-ajmprs-30497
  FrameworkList:
  - Social.framework
  - Passkit.framework
  - EventKit.framework
  - Security.framework
  - Twitter.framework
  - CoreTelephony.framework
  - ImageIO.framework
  - StoreKit.framework
  - MessageUI.framework
  - AdSupport.framework
  - MobileCoreServices.framework
  - WebKit.framework
  - SafariServices.framework
  - GameKit.framework
  - libxml2.tbd
  LinkerFlagArray:
  - -ObjC
  - -all_load
  - -lz
  FrameworkSearchPathArray:
  - $(inherited)
  - $(PROJECT_DIR)/Frameworks
  CompilerFlagsSetList: []
  EnableBitCode: 0
  EnableATS: 0
  EnableStatusBar: 0
  NeedToDeleteLaunchiImagesKey: 1
  AppLovinSdkKey: kydH15DnHXCnTTWq6tCail3Ua4xJOaP7W1OT6cKO9W9i_fW6XkgETkk3oeMBEmJloiIuJcHT8RA75hEdPvtuda
